// Jest Snapshot v1, https://goo.gl/fbAQLP

exports[`<ToolHeader /> Enzyme Static HTML <ToolHeader /> renders 1`] = `"\\"<h1>The Tool</h1><nav><ul><li><a href=\\\\\\"/\\\\\\">Home!</a></li><li><a href=\\\\\\"/create\\\\\\">Create</a></li></ul></nav>\\""`;
